Supplement to: “HaDeX: Analysis and Visualisation of Hydrogen/Deuterium Exchange Mass Spectrometry Data”
…
## [1] -0.01619004  0.01619004

The function add_stat_dependency()
returns data extended by column describing relation of a given peptide
with confidence limit.

add_stat_dependency(calc_dat, 
                   confidence_limit = 0.98, 
                   theoretical = FALSE, 
                   relative = TRUE)

## # A tibble: 108 × 29
##    Sequence     Start   End Med_Sequence frac_exch_state_1 err_frac_exch_state_1
##    <chr>        <int> <int>        <dbl>             <dbl>                 <dbl>
##  1 VPIDID          17    22         19.5           NaN                 NaN      
##  2 KTKVKGEGHVE…    23    44         33.5           NaN                 NaN      
##  3 YYDEY           45    49         47               0.975               0.00984
##  4 YYDEYL          45    50         47.5             0.679               0.00549
##  5 YLRQVID         49    55         52               0.453               0.00309
##  6 YLRQVIDV        49    56         52.5             0.428               0.00341
##  7 YLRQVIDVL       49    57         53               0.417               0.00271
##  8 LRQVID          50    55         52.5             0.520               0.00660
##  9 LRQVIDV         50    56         53               0.450               0.00248
## 10 LRQVIDVL        50    57         53.5             0.414               0.00346
## # ℹ 98 more rows
## # ℹ 23 more variables: frac_exch_state_2 <dbl>, err_frac_exch_state_2 <dbl>,
## #   diff_frac_exch <dbl>, err_frac_exch <dbl>, abs_frac_exch_state_1 <dbl>,
## #   err_abs_frac_exch_state_1 <dbl>, abs_frac_exch_state_2 <dbl>,
## #   err_abs_frac_exch_state_2 <dbl>, abs_diff_frac_exch <dbl>,
## #   err_abs_diff_frac_exch <dbl>, avg_theo_in_time_1 <dbl>,
## #   err_avg_theo_in_time_1 <dbl>, avg_theo_in_time_2 <dbl>, …
…
